module github.com/chiyutianyi/grpcfuse

go 1.17

require (
	github.com/golang/protobuf v1.5.2
	google.golang.org/protobuf v1.28.0
)

require (
	github.com/alecthomas/assert v1.0.0
	github.com/gogo/protobuf v1.3.2
	github.com/golang/mock v1.4.4
	github.com/grpc-ecosystem/go-grpc-middleware v1.3.0
	github.com/grpc-ecosystem/go-grpc-prometheus v1.2.0
	github.com/hanwen/go-fuse/v2 v2.1.1-0.20220112183258-f57e95bda82d
	github.com/sirupsen/logrus v1.8.1
	google.golang.org/grpc v1.45.0
)

require (
	github.com/alecthomas/colour v0.1.0 // indirect
	github.com/alecthomas/repr v0.0.0-20210801044451-80ca428c5142 // indirect
	github.com/beorn7/perks v1.0.1 // indirect
	github.com/cespare/xxhash/v2 v2.1.2 // indirect
	github.com/mattn/go-isatty v0.0.14 // indirect
	github.com/matttproud/golang_protobuf_extensions v1.0.1 // indirect
	github.com/prometheus/client_golang v1.12.1 // indirect
	github.com/prometheus/client_model v0.2.0 // indirect
	github.com/prometheus/common v0.32.1 // indirect
	github.com/prometheus/procfs v0.7.3 // indirect
	github.com/sergi/go-diff v1.2.0 // indirect
	golang.org/x/net v0.0.0-20210525063256-abc453219eb5 // indirect
	golang.org/x/sys v0.0.0-20220114195835-da31bd327af9 // indirect
	golang.org/x/text v0.3.6 // indirect
	google.golang.org/genproto v0.0.0-20200825200019-8632dd797987 // indirect
)
